{
  "project_info": {
    "project_number": "851529938240",
    "firebase_url": "https://sgpm-550a5.firebaseio.com",
    "project_id": "sgpm-550a5",
    "storage_bucket": "sgpm-550a5.appspot.com"
  },
  "client": [
    {
      "client_info": {
        "mobilesdk_app_id": "1:851529938240:android:63fa2f7b72f495f6a436a5",
        "android_client_info": {
          "package_name": "sgpm.group.home"
        }
      },
      "oauth_client": [
        {
          "client_id": "851529938240-qak6jt45ufpgn22cnsp3598ggn9oo22d.apps.googleusercontent.com",
          "client_type": 1,
          "android_info": {
            "package_name": "sgpm.group.home",
            "certificate_hash": "b4dc99e55fe31c3bce99c44c8a74824a452a1281"
          }
        },
        {
          "client_id": "851529938240-1j8rji9p7283mebjh0f976bu46i3n53b.apps.googleusercontent.com",
          "client_type": 3
        }
      ],
      "api_key": [
        {
          "current_key": "AIzaSyD0IoH8WQS7BfGfNj9_ZKEDDb0EeVILSJE"
        }
      ],
      "services": {
        "appinvite_service": {
          "other_platform_oauth_client": [
            {
              "client_id": "851529938240-1j8rji9p7283mebjh0f976bu46i3n53b.apps.googleusercontent.com",
              "client_type": 3
            },
            {
              "client_id": "851529938240-ifq7ubnng3pi671lfbpk5v7mlthbsma5.apps.googleusercontent.com",
              "client_type": 2,
              "ios_info": {
                "bundle_id": "home.group.sgpm"
              }
            }
          ]
        }
      }
    }
  ],
  "configuration_version": "1"
}